^C:\USERS\DRWIL\SOURCE\REPOS\1.1OSA\1.1OSA\PCH.CPP
C:\USERS\DRWIL\SOURCE\REPOS\1.1OSA\1.1OSA\DEBUG\1.1OSA.PCH.CODEANALYSISAST
C:\USERS\DRWIL\SOURCE\REPOS\1.1OSA\1.1OSA\DEBUG\PCH.NATIVECODEANALYSIS.XML
C:\USERS\DRWIL\SOURCE\REPOS\1.1OSA\1.1OSA\DEBUG\VC141.PDB
C:\USERS\DRWIL\SOURCE\REPOS\1.1OSA\1.1OSA\DEBUG\1.1OSA.PCH
C:\USERS\DRWIL\SOURCE\REPOS\1.1OSA\1.1OSA\DEBUG\VC141.IDB
C:\USERS\DRWIL\SOURCE\REPOS\1.1OSA\1.1OSA\DEBUG\PCH.OBJ
^C:\USERS\DRWIL\SOURCE\REPOS\1.1OSA\1.1OSA\1.1OSA.CPP
C:\USERS\DRWIL\SOURCE\REPOS\1.1OSA\1.1OSA\DEBUG\VC141.PDB
C:\USERS\DRWIL\SOURCE\REPOS\1.1OSA\1.1OSA\DEBUG\VC141.IDB
C:\USERS\DRWIL\SOURCE\REPOS\1.1OSA\1.1OSA\DEBUG\1.1OSA.OBJ
