^C:\USERS\DRWIL\SOURCE\REPOS\1.2OS\1.2OS\PCH.CPP
C:\USERS\DRWIL\SOURCE\REPOS\1.2OS\1.2OS\DEBUG\1.2OS.PCH
C:\USERS\DRWIL\SOURCE\REPOS\1.2OS\1.2OS\DEBUG\VC141.PDB
C:\USERS\DRWIL\SOURCE\REPOS\1.2OS\1.2OS\DEBUG\VC141.IDB
C:\USERS\DRWIL\SOURCE\REPOS\1.2OS\1.2OS\DEBUG\PCH.OBJ
^C:\USERS\DRWIL\SOURCE\REPOS\1.2OS\1.2OS\1.2OS.CPP
C:\USERS\DRWIL\SOURCE\REPOS\1.2OS\1.2OS\DEBUG\VC141.PDB
C:\USERS\DRWIL\SOURCE\REPOS\1.2OS\1.2OS\DEBUG\VC141.IDB
C:\USERS\DRWIL\SOURCE\REPOS\1.2OS\1.2OS\DEBUG\1.2OS.OBJ
